<svg xmlns="http://www.w3.org/2000/svg" xmlns:xlink="http://www.w3.org/1999/xlink" preserveAspectRatio="xMidYMid" width="10" height="20" viewBox="0 0 10 20">
  <defs>
    <style>
      .cls-1 {
        fill: #abb4b8;
        fill-rule: evenodd;
      }
    </style>
  </defs>
  <path d="M-0.008,0.624 L0.591,-0.010 L9.452,9.387 L8.853,10.021 L-0.008,0.624 ZM10.009,10.343 L0.894,20.007 L0.283,19.360 L9.397,9.695 L10.009,10.343 Z" class="cls-1"/>
</svg>
