<svg xmlns="http://www.w3.org/2000/svg" xmlns:xlink="http://www.w3.org/1999/xlink" preserveAspectRatio="xMidYMid" width="20" height="10" viewBox="0 0 20 10">
  <defs>
    <style>
      .cls-1 {
        fill: #f16338;
        fill-rule: evenodd;
      }
    </style>
  </defs>
  <path d="M19.375,10.007 L9.978,1.146 L10.612,0.547 L20.009,9.409 L19.375,10.007 ZM-0.008,9.105 L9.656,-0.009 L10.304,0.603 L0.639,9.717 L-0.008,9.105 Z" class="cls-1"/>
</svg>
