<svg xmlns="http://www.w3.org/2000/svg" xmlns:xlink="http://www.w3.org/1999/xlink" preserveAspectRatio="xMidYMid" width="10" height="19" viewBox="0 0 10 19">
  <defs>
    <style>
      .cls-1 {
        fill: #ffffff;
        fill-rule: evenodd;
      }
    </style>
  </defs>
  <path d="M2.578,10.764 L2.578,18.968 L6.732,19.000 L6.716,10.739 L9.282,10.723 L9.998,7.162 L6.714,7.162 L6.714,4.533 C6.714,4.178 6.856,3.545 7.435,3.545 L9.349,3.577 L9.284,0.015 L5.497,-0.001 C4.201,-0.001 2.580,1.644 2.580,3.325 L2.548,7.143 L0.004,7.191 L0.004,10.749 L2.578,10.764 Z" class="cls-1"/>
</svg>
