<svg xmlns="http://www.w3.org/2000/svg" xmlns:xlink="http://www.w3.org/1999/xlink" preserveAspectRatio="xMidYMid" width="19" height="19" viewBox="0 0 19 19">
  <defs>
    <style>
      .cls-1 {
        fill: #979799;
        fill-rule: evenodd;
      }
    </style>
  </defs>
  <path d="M16.625,-0.000 L2.375,-0.000 C1.064,-0.000 -0.000,1.064 -0.000,2.375 L-0.000,16.625 C-0.000,17.936 1.064,19.000 2.375,19.000 L16.625,19.000 C17.936,19.000 19.000,17.936 19.000,16.625 L19.000,2.375 C19.000,1.064 17.936,-0.000 16.625,-0.000 M9.500,7.125 C11.687,7.125 11.875,9.500 11.875,9.500 C11.875,9.500 11.945,11.875 9.500,11.875 C7.056,11.875 7.125,9.500 7.125,9.500 C7.125,9.500 7.313,7.125 9.500,7.125 M16.812,15.420 C16.812,16.077 16.060,16.811 15.404,16.811 L3.529,16.811 C2.872,16.811 2.154,16.093 2.154,15.437 L2.154,9.500 C2.154,8.844 2.906,8.143 3.563,8.143 L4.919,8.143 C4.819,8.525 4.750,9.087 4.750,9.500 C4.750,12.123 6.877,14.250 9.500,14.250 C12.123,14.250 14.250,12.123 14.250,9.500 C14.250,9.087 14.180,8.542 14.081,8.160 L15.437,8.160 C16.094,8.160 16.812,8.827 16.812,9.483 L16.812,15.420 ZM16.625,4.750 C16.625,5.405 16.094,5.937 15.437,5.937 L14.250,5.937 C13.595,5.937 13.062,5.405 13.062,4.750 L13.062,3.562 C13.062,2.907 13.595,2.375 14.250,2.375 L15.437,2.375 C16.094,2.375 16.625,2.907 16.625,3.562 L16.625,4.750 Z" class="cls-1"/>
</svg>
