<svg xmlns="http://www.w3.org/2000/svg" xmlns:xlink="http://www.w3.org/1999/xlink" preserveAspectRatio="xMidYMid" width="31" height="30" viewBox="0 0 31 30">
  <defs>
    <style>
      .cls-1 {
        fill: #fff;
        fill-rule: evenodd;
      }
    </style>
  </defs>
  <path d="M9.946,21.381 L12.909,21.381 L12.909,24.398 C12.909,24.845 13.265,25.208 13.705,25.208 L17.295,25.208 C17.734,25.208 18.091,24.845 18.091,24.398 L18.091,21.381 L21.054,21.381 C21.494,21.381 21.850,21.018 21.850,20.570 L21.850,16.915 C21.850,16.467 21.494,16.104 21.054,16.104 L18.091,16.104 L18.091,13.088 C18.091,12.640 17.734,12.277 17.295,12.277 L13.705,12.277 C13.265,12.277 12.909,12.640 12.909,13.088 L12.909,16.104 L9.946,16.104 C9.506,16.104 9.150,16.467 9.150,16.915 L9.150,20.570 C9.150,21.018 9.506,21.381 9.946,21.381 ZM10.742,17.726 L13.705,17.726 C14.145,17.726 14.502,17.363 14.502,16.915 L14.502,13.898 L16.498,13.898 L16.498,16.915 C16.498,17.363 16.855,17.726 17.295,17.726 L20.258,17.726 L20.258,19.759 L17.295,19.759 C16.855,19.759 16.498,20.122 16.498,20.570 L16.498,23.587 L14.502,23.587 L14.502,20.570 C14.502,20.122 14.145,19.759 13.705,19.759 L10.742,19.759 L10.742,17.726 ZM30.204,7.485 L23.648,7.485 L23.648,0.811 C23.648,0.363 23.292,-0.000 22.852,-0.000 L8.148,-0.000 C7.708,-0.000 7.352,0.363 7.352,0.811 L7.352,7.485 L0.796,7.485 C0.357,7.485 -0.000,7.848 -0.000,8.296 L-0.000,29.189 C-0.000,29.637 0.357,30.000 0.796,30.000 L30.204,30.000 C30.643,30.000 31.000,29.637 31.000,29.189 L31.000,8.296 C31.000,7.848 30.643,7.485 30.204,7.485 ZM8.944,1.622 L22.055,1.622 L22.055,2.961 L8.944,2.961 L8.944,1.622 ZM8.944,4.582 L22.055,4.582 L22.055,7.486 L8.944,7.486 L8.944,4.582 ZM29.407,28.378 L1.593,28.378 L1.593,9.107 L29.407,9.107 L29.407,28.378 Z" class="cls-1"/>
</svg>
