<svg xmlns="http://www.w3.org/2000/svg" xmlns:xlink="http://www.w3.org/1999/xlink" preserveAspectRatio="xMidYMid" width="33" height="30" viewBox="0 0 33 30">
  <defs>
    <style>
      .cls-1 {
        fill: #fff;
        fill-rule: evenodd;
      }
    </style>
  </defs>
  <path d="M32.966,19.372 C32.960,19.469 32.952,19.589 32.953,19.625 L32.973,20.093 C32.984,20.343 32.854,20.578 32.639,20.694 C24.101,25.325 19.227,27.968 18.110,28.574 C18.078,28.608 18.046,28.642 18.012,28.676 C17.919,28.773 17.803,28.832 17.682,28.855 C16.617,29.612 15.339,29.998 13.991,29.998 C13.030,29.998 12.032,29.802 11.051,29.403 C8.440,28.341 2.145,24.182 0.088,8.547 L0.007,7.937 C-0.033,7.629 0.144,7.335 0.429,7.237 L21.351,0.033 C21.583,-0.047 21.839,0.020 22.006,0.204 C22.173,0.389 22.221,0.657 22.128,0.891 L21.533,2.389 C21.201,3.226 21.032,4.105 21.032,5.002 C21.032,9.240 24.692,13.126 25.839,14.241 C27.493,13.495 29.523,12.642 31.443,14.374 C33.183,15.944 33.025,18.434 32.966,19.372 ZM19.782,5.002 C19.782,3.936 19.982,2.892 20.376,1.898 L20.453,1.704 L1.316,8.293 L1.327,8.373 C3.295,23.331 9.103,27.222 11.509,28.200 C13.574,29.040 15.700,28.824 17.196,27.621 C17.228,27.596 17.262,27.574 17.299,27.555 C17.302,27.553 17.319,27.544 17.348,27.528 C18.793,25.937 19.118,24.541 19.118,24.120 C19.118,23.445 18.925,22.797 18.561,22.246 C17.695,20.935 16.136,20.525 14.853,21.271 C13.568,22.017 13.080,23.048 13.548,24.027 C13.925,24.817 14.825,25.257 15.473,24.971 C15.587,24.920 15.772,24.715 15.819,24.595 C15.737,24.289 15.885,23.960 16.175,23.831 C16.493,23.691 16.860,23.842 16.997,24.170 C17.075,24.359 17.137,24.668 16.982,25.067 C16.805,25.524 16.387,25.972 15.965,26.158 C14.716,26.713 13.095,25.999 12.426,24.599 C11.862,23.418 11.975,21.619 14.006,20.306 C14.060,20.238 14.127,20.180 14.208,20.139 L24.654,14.856 C23.087,13.273 19.782,9.411 19.782,5.002 ZM30.620,15.347 C29.249,14.109 27.843,14.745 26.215,15.481 L25.967,15.593 C25.917,15.615 25.864,15.605 25.812,15.613 C25.754,15.699 25.682,15.775 25.585,15.824 L17.575,19.875 C18.357,20.176 19.069,20.722 19.594,21.518 C20.101,22.284 20.369,23.184 20.369,24.120 C20.369,24.254 20.343,25.056 19.787,26.205 C23.470,24.208 30.109,20.607 31.706,19.741 L31.703,19.681 C31.699,19.578 31.707,19.456 31.718,19.287 C31.771,18.452 31.895,16.497 30.620,15.347 ZM7.037,16.407 C6.929,16.636 6.706,16.770 6.474,16.770 C6.382,16.770 6.289,16.749 6.201,16.705 C5.890,16.549 5.761,16.162 5.912,15.841 L8.322,10.721 L5.409,9.417 C5.092,9.275 4.946,8.894 5.083,8.567 C5.221,8.239 5.589,8.089 5.906,8.231 L14.496,12.077 C14.503,12.016 14.509,11.954 14.535,11.895 L16.811,6.573 C16.950,6.247 17.319,6.099 17.636,6.243 C17.951,6.387 18.094,6.769 17.955,7.095 L15.679,12.417 C15.654,12.476 15.603,12.509 15.564,12.555 L20.282,14.667 C20.599,14.809 20.744,15.189 20.607,15.517 C20.505,15.760 20.275,15.906 20.033,15.906 C19.950,15.906 19.865,15.889 19.784,15.852 L9.471,11.235 L8.377,13.559 L15.070,16.641 C15.385,16.786 15.527,17.168 15.386,17.494 C15.283,17.734 15.054,17.877 14.815,17.877 C14.730,17.877 14.643,17.859 14.560,17.821 L7.830,14.722 L7.037,16.407 Z" class="cls-1"/>
</svg>
