<svg xmlns="http://www.w3.org/2000/svg" xmlns:xlink="http://www.w3.org/1999/xlink" preserveAspectRatio="xMidYMid" width="38" height="30" viewBox="0 0 38 30">
  <defs>
    <style>
      .cls-1 {
        fill: #fff;
        fill-rule: evenodd;
      }
    </style>
  </defs>
  <path d="M37.739,24.535 L35.014,26.345 C34.786,26.496 34.486,26.468 34.289,26.278 C34.084,26.079 30.194,22.278 27.801,17.303 C27.860,20.198 27.624,24.046 26.353,27.144 C26.331,27.256 26.287,27.359 26.213,27.439 C25.838,28.292 25.397,29.096 24.837,29.784 C24.726,29.921 24.560,30.000 24.386,30.000 L13.614,30.000 C13.439,30.000 13.273,29.921 13.162,29.784 C10.540,26.559 10.121,21.104 10.199,17.303 C7.820,22.240 3.974,25.954 3.771,26.148 C3.581,26.330 3.296,26.362 3.071,26.227 L0.283,24.549 C0.097,24.438 -0.013,24.232 -0.003,24.013 C0.534,11.811 9.409,4.359 9.787,4.048 C9.856,3.991 9.936,3.951 10.022,3.930 L14.628,2.829 L14.968,0.542 C15.011,0.252 15.257,0.038 15.547,0.038 L16.957,0.038 C16.962,0.036 16.965,0.032 16.970,0.030 C17.086,-0.007 17.202,0.005 17.311,0.038 L23.038,0.038 C23.327,0.038 23.573,0.252 23.616,0.542 L23.958,2.842 L27.994,3.935 C28.074,3.956 28.148,3.995 28.212,4.048 C28.590,4.359 37.465,11.811 38.002,24.013 C38.012,24.222 37.911,24.421 37.739,24.535 ZM13.896,28.815 L24.103,28.815 C24.377,28.450 24.615,28.047 24.836,27.627 L13.164,27.627 C13.384,28.047 13.622,28.450 13.896,28.815 ZM16.728,1.223 L16.050,1.223 L15.726,3.403 C15.690,3.642 15.514,3.835 15.282,3.891 L10.427,5.051 C9.466,5.894 1.816,12.926 1.184,23.713 L3.280,24.974 C4.531,23.688 9.187,18.614 10.519,13.016 C10.592,12.708 10.891,12.513 11.197,12.573 C11.504,12.633 11.711,12.926 11.666,13.240 C11.653,13.332 10.589,21.132 12.631,26.442 L18.869,26.442 C18.887,24.297 18.877,22.182 18.866,20.136 C18.856,18.083 18.846,16.098 18.866,14.218 C18.773,13.184 18.700,12.285 18.635,11.487 C18.301,7.392 18.178,5.919 16.728,1.223 ZM17.953,1.223 C18.644,3.490 19.024,5.034 19.271,6.500 C19.532,4.362 19.948,2.562 20.614,1.223 L17.953,1.223 ZM27.565,5.046 L23.286,3.887 C23.061,3.826 22.893,3.636 22.858,3.403 L22.534,1.223 L21.930,1.223 C21.918,1.249 21.916,1.277 21.901,1.302 C20.436,3.699 20.096,8.400 20.035,14.158 C20.035,14.163 20.036,14.167 20.036,14.173 C20.037,14.177 20.034,14.182 20.035,14.186 C20.015,16.070 20.025,18.065 20.036,20.130 C20.046,22.176 20.056,24.292 20.039,26.442 L25.368,26.442 C27.410,21.132 26.346,13.332 26.333,13.240 C26.289,12.926 26.495,12.633 26.802,12.573 C27.109,12.513 27.407,12.708 27.481,13.016 C28.810,18.606 33.488,23.758 34.770,25.089 L36.817,23.730 C36.189,12.908 28.497,5.860 27.565,5.046 Z" class="cls-1"/>
</svg>
