<svg xmlns="http://www.w3.org/2000/svg" xmlns:xlink="http://www.w3.org/1999/xlink" preserveAspectRatio="xMidYMid" width="168" height="43" viewBox="0 0 168 43">
  <defs>
    <style>
      .cls-1 {
        fill: #de3b26;
      }

      .cls-1, .cls-2 {
        fill-rule: evenodd;
      }

      .cls-2 {
        fill: #fff;
      }
    </style>
  </defs>
  <path d="M144.470,25.671 C148.210,24.157 159.062,19.648 159.081,14.270 C159.106,4.513 123.612,3.147 104.952,4.062 C86.025,4.992 68.375,6.844 53.640,8.766 C55.218,7.416 75.743,3.627 87.456,2.184 C104.641,0.066 124.604,-0.775 139.049,0.824 C146.620,1.660 168.000,4.216 168.000,13.283 C168.000,18.970 155.535,24.142 144.470,25.671 ZM14.747,32.799 C26.894,37.461 46.033,38.139 64.645,37.893 C83.587,37.642 103.281,35.170 117.991,33.081 C115.145,35.261 93.569,38.904 81.817,39.949 C65.055,41.440 45.040,42.833 30.580,41.403 C22.997,40.651 14.067,39.593 7.869,37.762 C4.957,36.904 0.001,34.033 0.001,30.006 C-0.000,23.668 20.268,15.465 26.282,15.233 C21.611,17.126 9.465,22.196 9.833,28.209 C9.950,30.123 12.952,32.109 14.747,32.799 Z" class="cls-1"/>
  <path d="M145.487,15.165 L138.551,21.501 L142.988,28.810 L138.516,28.810 L135.344,23.476 L134.148,24.454 L133.074,28.810 L128.850,28.810 L132.200,15.146 L136.428,15.165 L135.146,20.389 L140.872,15.146 L145.487,15.165 ZM129.000,22.571 L119.302,22.571 C119.302,22.616 119.302,22.662 119.302,22.705 C119.302,22.746 119.302,22.792 119.302,22.836 C119.302,23.740 119.621,24.444 120.257,24.953 C120.510,25.158 120.823,25.320 121.184,25.444 C121.617,25.533 122.112,25.577 122.663,25.577 C123.581,25.577 124.447,25.425 125.264,25.117 C126.081,24.808 126.794,24.465 127.398,24.086 L128.416,24.081 L127.596,27.566 C126.782,27.920 125.929,28.190 125.028,28.372 C124.130,28.552 123.178,28.643 122.161,28.643 C120.997,28.643 119.972,28.505 119.084,28.237 C118.058,27.995 117.199,27.597 116.508,27.035 C115.300,26.055 114.696,24.701 114.696,22.972 C114.696,21.792 114.893,20.708 115.289,19.720 C115.685,18.734 116.252,17.863 116.995,17.117 C117.709,16.389 118.596,15.817 119.666,15.392 C120.733,14.968 121.908,14.755 123.182,14.755 C124.275,14.755 125.219,14.880 126.007,15.128 C126.848,15.321 127.541,15.635 128.086,16.067 C129.076,16.850 129.570,18.009 129.570,19.538 C129.570,20.062 129.514,20.575 129.409,21.077 C129.307,21.579 129.169,22.077 129.000,22.571 ZM124.345,17.845 C124.203,17.722 124.032,17.620 123.841,17.545 C123.647,17.511 123.442,17.496 123.216,17.496 C122.354,17.496 121.630,17.727 121.045,18.192 C120.489,18.630 120.066,19.230 119.765,19.992 L124.844,19.992 C124.870,19.855 124.887,19.726 124.899,19.611 C124.909,19.492 124.915,19.372 124.915,19.250 C124.915,18.637 124.727,18.169 124.345,17.845 ZM110.341,18.130 L107.867,28.810 L103.136,28.810 L105.595,18.130 L101.479,18.186 L102.129,15.159 L115.145,15.165 L114.494,18.130 L110.341,18.130 ZM92.724,28.810 L94.145,22.663 L89.907,22.663 L88.475,28.810 L83.755,28.810 L86.905,15.159 L91.631,15.159 L90.583,19.715 L94.826,19.715 L95.880,15.159 L100.595,15.165 L97.493,28.810 L92.724,28.810 ZM76.175,28.810 L79.393,15.159 L84.107,15.165 L80.972,28.810 L76.175,28.810 ZM73.820,25.820 C73.116,26.674 72.322,27.342 71.439,27.822 C70.553,28.299 69.564,28.539 68.463,28.539 C67.767,28.539 67.129,28.459 66.544,28.302 C66.470,28.282 66.398,28.256 66.326,28.232 C66.228,28.213 66.127,28.190 66.035,28.165 C65.643,28.058 65.276,27.920 64.933,27.756 L63.708,33.049 L58.995,33.049 L63.107,15.159 L67.764,15.133 L67.638,16.094 C68.183,15.750 68.699,15.471 69.183,15.254 C69.854,14.952 70.594,14.801 71.408,14.801 C71.994,14.801 72.520,14.881 72.985,15.041 C73.793,15.205 74.445,15.571 74.945,16.136 C75.650,16.933 76.001,18.040 76.001,19.449 C76.001,20.643 75.806,21.802 75.415,22.923 C75.025,24.047 74.492,25.011 73.820,25.820 ZM70.616,18.427 C70.483,18.265 70.300,18.141 70.075,18.048 C69.892,18.019 69.691,18.004 69.470,18.004 C69.062,18.004 68.661,18.074 68.266,18.218 C67.873,18.360 67.453,18.546 67.015,18.779 L65.501,25.313 C65.570,25.342 65.639,25.367 65.715,25.395 C65.758,25.405 65.807,25.414 65.853,25.423 C66.184,25.481 66.521,25.508 66.871,25.508 C67.575,25.508 68.196,25.358 68.738,25.059 C69.280,24.757 69.715,24.361 70.049,23.868 C70.383,23.382 70.635,22.813 70.815,22.163 C70.992,21.510 71.082,20.803 71.082,20.040 C71.082,19.338 70.928,18.801 70.616,18.427 ZM58.828,28.810 L54.261,28.810 L51.157,23.465 L49.960,24.442 L48.932,28.810 L44.534,28.810 L48.007,15.133 L52.234,15.165 L50.954,20.379 L56.682,15.133 L61.118,15.133 L54.358,21.487 L58.828,28.810 ZM31.576,28.617 L34.726,23.604 C32.819,18.570 29.604,8.754 29.604,8.754 L35.247,8.754 L37.773,17.641 L43.548,8.754 L49.381,8.754 L37.495,28.617 L31.576,28.617 Z" class="cls-2"/>
</svg>
