<svg xmlns="http://www.w3.org/2000/svg" xmlns:xlink="http://www.w3.org/1999/xlink" preserveAspectRatio="xMidYMid" width="19" height="22" viewBox="0 0 19 22">
  <defs>
    <style>
      .cls-1 {
        fill: #979799;
        fill-rule: evenodd;
      }
    </style>
  </defs>
  <path d="M18.872,19.204 C18.872,20.681 17.643,21.880 16.129,21.880 C13.966,21.968 11.753,22.008 9.497,22.004 C7.241,22.008 5.028,21.968 2.866,21.880 C1.351,21.880 0.122,20.681 0.122,19.204 C0.032,18.034 -0.009,16.864 -0.004,15.695 C-0.009,14.525 0.032,13.355 0.122,12.185 C0.122,10.708 1.351,9.510 2.866,9.510 C5.028,9.421 7.241,9.382 9.497,9.386 C11.753,9.382 13.966,9.421 16.129,9.510 C17.643,9.510 18.872,10.708 18.872,12.185 C18.963,13.355 19.003,14.525 18.999,15.695 C19.003,16.864 18.963,18.034 18.872,19.204 ZM5.453,11.342 L1.467,11.342 L1.467,12.545 L2.810,12.545 L2.810,19.633 L4.109,19.633 L4.109,12.545 L5.453,12.545 L5.453,11.342 ZM8.728,13.517 L7.575,13.517 L7.575,18.160 C7.467,18.293 7.348,18.402 7.219,18.489 C7.089,18.574 6.982,18.617 6.898,18.617 C6.789,18.617 6.711,18.585 6.662,18.520 C6.615,18.455 6.590,18.350 6.590,18.205 L6.590,13.517 L5.437,13.517 L5.437,18.629 C5.437,18.993 5.505,19.266 5.640,19.448 C5.775,19.631 5.975,19.721 6.243,19.721 C6.459,19.721 6.681,19.656 6.911,19.526 C7.141,19.395 7.362,19.206 7.575,18.957 L7.575,19.633 L8.728,19.633 L8.728,13.517 ZM13.166,14.973 C13.166,14.473 13.070,14.092 12.877,13.832 C12.686,13.570 12.407,13.440 12.042,13.440 C11.864,13.440 11.687,13.488 11.512,13.586 C11.337,13.683 11.172,13.824 11.017,14.011 L11.017,11.342 L9.853,11.342 L9.853,19.633 L11.017,19.633 L11.017,19.162 C11.168,19.349 11.333,19.487 11.510,19.576 C11.686,19.665 11.887,19.711 12.113,19.711 C12.454,19.711 12.716,19.595 12.896,19.365 C13.076,19.133 13.166,18.800 13.166,18.366 L13.166,14.973 ZM17.428,17.447 L16.242,17.447 L16.242,17.872 C16.242,18.232 16.204,18.464 16.127,18.570 C16.051,18.675 15.918,18.729 15.727,18.729 C15.542,18.729 15.413,18.666 15.337,18.541 C15.260,18.416 15.223,18.193 15.223,17.872 L15.223,16.718 L17.428,16.718 L17.428,15.161 C17.428,14.581 17.287,14.136 17.003,13.826 C16.720,13.517 16.315,13.362 15.788,13.362 C15.271,13.362 14.851,13.529 14.525,13.864 C14.199,14.198 14.036,14.631 14.036,15.161 L14.036,17.907 C14.036,18.495 14.185,18.957 14.481,19.294 C14.778,19.631 15.184,19.798 15.700,19.798 C16.274,19.798 16.706,19.640 16.995,19.323 C17.284,19.005 17.428,18.534 17.428,17.907 L17.428,17.447 ZM15.223,15.150 C15.223,14.894 15.263,14.710 15.343,14.600 C15.423,14.489 15.555,14.434 15.738,14.434 C15.914,14.434 16.041,14.489 16.122,14.600 C16.202,14.710 16.242,14.894 16.242,15.150 L16.242,15.769 L15.223,15.769 L15.223,15.150 ZM11.569,18.749 C11.471,18.749 11.377,18.729 11.290,18.684 C11.202,18.640 11.111,18.568 11.017,18.469 L11.017,14.657 C11.095,14.573 11.175,14.511 11.255,14.472 C11.335,14.431 11.417,14.411 11.499,14.411 C11.656,14.411 11.774,14.464 11.856,14.572 C11.939,14.679 11.980,14.835 11.980,15.042 L11.980,18.199 C11.980,18.394 11.947,18.534 11.880,18.621 C11.814,18.707 11.710,18.749 11.569,18.749 ZM14.251,7.621 C14.039,7.870 13.818,8.059 13.588,8.189 C13.358,8.320 13.135,8.384 12.918,8.384 C12.652,8.384 12.451,8.293 12.315,8.112 C12.180,7.930 12.114,7.656 12.114,7.292 L12.114,2.180 L13.266,2.180 L13.266,6.868 C13.266,7.014 13.290,7.118 13.339,7.183 C13.387,7.248 13.465,7.281 13.573,7.281 C13.658,7.281 13.765,7.238 13.894,7.151 C14.024,7.066 14.144,6.956 14.251,6.822 L14.251,2.180 L15.403,2.180 L15.403,8.296 L14.251,8.296 L14.251,7.621 ZM9.452,8.451 C8.948,8.451 8.544,8.297 8.242,7.990 C7.939,7.682 7.787,7.268 7.787,6.750 L7.787,3.579 C7.787,3.105 7.943,2.727 8.253,2.447 C8.564,2.166 8.980,2.026 9.505,2.026 C9.981,2.026 10.373,2.174 10.678,2.470 C10.981,2.766 11.135,3.147 11.135,3.613 L11.135,6.771 C11.135,7.295 10.985,7.705 10.686,8.003 C10.388,8.301 9.976,8.451 9.452,8.451 ZM9.959,3.532 C9.959,3.398 9.912,3.291 9.818,3.209 C9.724,3.127 9.602,3.085 9.449,3.085 C9.308,3.085 9.193,3.127 9.106,3.209 C9.017,3.291 8.974,3.398 8.974,3.532 L8.974,6.864 C8.974,7.032 9.014,7.162 9.097,7.253 C9.179,7.346 9.296,7.390 9.449,7.390 C9.605,7.390 9.729,7.344 9.821,7.251 C9.913,7.157 9.959,7.027 9.959,6.864 L9.959,3.532 ZM6.336,8.296 L5.036,8.296 L5.036,5.011 L3.491,0.006 L4.799,0.006 L5.641,3.320 L5.723,3.320 L6.527,0.006 L7.846,0.006 L6.336,4.856 L6.336,8.296 Z" class="cls-1"/>
</svg>
